Homework8
…
#Final Fit
FinalFit <- last_fit(Wf2, DailyDataSplit)
collect_metrics(FinalFit)

# A tibble: 2 × 4
  .metric .estimator .estimate .config        
  <chr>   <chr>          <dbl> <chr>          
1 rmse    standard    3753.    pre0_mod0_post0
2 rsq     standard       0.840 pre0_mod0_post0

#Extract coefficients
FinalModel <- extract_fit_parsnip(FinalFit)
tidy(FinalModel)

# A tibble: 21 × 5
   term                estimate std.error statistic  p.value
   <chr>                  <dbl>     <dbl>     <dbl>    <dbl>
 1 (Intercept)           17715.     1327.   13.3    7.97e-31
 2 TotalRainfallMm       -2617.      313.   -8.37   4.72e-15
 3 TotalSnowfallCm        -281.      174.   -1.62   1.07e- 1
 4 MeanTempC               162.     3105.    0.0522 9.58e- 1
 5 MeanHumidityPercent   -1611.     1181.   -1.36   1.74e- 1
 6 MeanWindSpeedMs        -671.      187.   -3.59   3.98e- 4
 7 MeanVisibility10M       327.      249.    1.31   1.90e- 1
 8 MeanDewPointC          5788.     3566.    1.62   1.06e- 1
 9 MeanSolarMjm2          3172.      329.    9.63   8.54e-19
10 Seasons_Spring        -2765.     2362.   -1.17   2.43e- 1
# ℹ 11 more rows
…
#Tuning Lasso Model 
LassoTune <- tune_grid(
  WfLasso,
  resamples = CvFolds,
  grid = LassoGrid,
  metrics = metric_set(rmse, rsq, mae),
  control = control_grid(save_pred = TRUE)
)

collect_metrics(LassoTune)

# A tibble: 90 × 7
     penalty .metric .estimator     mean     n  std_err .config         
       <dbl> <chr>   <chr>         <dbl> <int>    <dbl> <chr>           
 1 0.00001   mae     standard   3111.       10 122.     pre0_mod01_post0
 2 0.00001   rmse    standard   3868.       10 142.     pre0_mod01_post0
 3 0.00001   rsq     standard      0.852    10   0.0136 pre0_mod01_post0
 4 0.0000161 mae     standard   3111.       10 122.     pre0_mod02_post0
 5 0.0000161 rmse    standard   3868.       10 142.     pre0_mod02_post0
 6 0.0000161 rsq     standard      0.852    10   0.0136 pre0_mod02_post0
 7 0.0000259 mae     standard   3111.       10 122.     pre0_mod03_post0
 8 0.0000259 rmse    standard   3868.       10 142.     pre0_mod03_post0
 9 0.0000259 rsq     standard      0.852    10   0.0136 pre0_mod03_post0
10 0.0000418 mae     standard   3111.       10 122.     pre0_mod04_post0
# ℹ 80 more rows
…
#Tuning Model
TreeTune <- tune_grid(
  WfTree,
  resamples = CvFolds,
  grid = TreeGrid,
  metrics = metric_set(rmse, rsq, mae),
  control = control_grid(save_pred = TRUE)
)

collect_metrics(TreeTune)

# A tibble: 375 × 9
   cost_complexity tree_depth min_n .metric .estimator     mean     n  std_err
             <dbl>      <int> <int> <chr>   <chr>         <dbl> <int>    <dbl>
 1         0.00001          2     5 mae     standard   3553.       10 220.    
 2         0.00001          2     5 rmse    standard   4633.       10 283.    
 3         0.00001          2     5 rsq     standard      0.794    10   0.0319
 4         0.00001          2     6 mae     standard   3553.       10 220.    
 5         0.00001          2     6 rmse    standard   4633.       10 283.    
 6         0.00001          2     6 rsq     standard      0.794    10   0.0319
 7         0.00001          2     7 mae     standard   3553.       10 220.    
 8         0.00001          2     7 rmse    standard   4633.       10 283.    
 9         0.00001          2     7 rsq     standard      0.794    10   0.0319
10         0.00001          2     8 mae     standard   3553.       10 220.    
# ℹ 365 more rows
# ℹ 1 more variable: .config <chr>
…
